{
	"Main": [
		{
			"DisplayOrder": 0,
			"Link": "/",
			"MenuType": "Link",
			"DropDownId": 0,
			"Title": "Home"
		},
		{
			"DisplayOrder": 1,
			"Link": "/Pages/faculty-home",
			"MenuType": "Link",
			"DropDownId": -1,
			"Title": "Faculty & Staff"
		},
		{
			"DisplayOrder": 2,
			"Link": "/Pages/student-home",
			"MenuType": "Link",
			"DropDownId": 2,
			"Title": "Students"
		},
		{
			"DisplayOrder": 3,
			"Link": "https://byupas.byu.edu/Pages/Home.aspx",
			"MenuType": "Link",
			"DropDownId": -1,
			"Title": "Alumni"
		},
		{
			"DisplayOrder": 4,
			"Link": "/Pages/great-minds-academy",
			"MenuType": "Link",
			"DropDownId": -1,
			"Title": "Affiliates"
		},
		{
			"DisplayOrder": 5,
			"Link": "",
			"MenuType": "DropDown",
			"DropDownId": 1,
			"Title": "Student Employees"
		}
	],
	"Student Nav": [
		{
			"DisplayOrder": 1,
			"Link": "",
			"MenuType": "DropDown",
			"DropDownId": 0,
			"Title": "Course Information"
		},
		{
			"DisplayOrder": 4,
			"Link": "",
			"MenuType": "DropDown",
			"DropDownId": 1,
			"Title": "Clubs"
		},
		{
			"DisplayOrder": 2,
			"Link": "",
			"MenuType": "DropDown",
			"DropDownId": 2,
			"Title": "Scholarships & Grants"
		},
		{
			"DisplayOrder": 5,
			"Link": "",
			"MenuType": "DropDown",
			"DropDownId": 3,
			"Title": "Publications"
		},
		{
			"DisplayOrder": 3,
			"Link": "",
			"MenuType": "DropDown",
			"DropDownId": 4,
			"Title": "Internships"
		},
		{
			"DisplayOrder": 0,
			"Link": "",
			"MenuType": "DropDown",
			"DropDownId": 5,
			"Title": "Advisement"
		}
	],
	"Faculty Nav": [
		{
			"DisplayOrder": 1,
			"Link": "",
			"MenuType": "DropDown",
			"DropDownId": 0,
			"Title": "Travel"
		},
		{
			"DisplayOrder": 3,
			"Link": "",
			"MenuType": "DropDown",
			"DropDownId": 1,
			"Title": "Helpful Links"
		},
		{
			"DisplayOrder": 0,
			"Link": "",
			"MenuType": "DropDown",
			"DropDownId": 2,
			"Title": "Directory"
		},
		{
			"DisplayOrder": 4,
			"Link": "",
			"MenuType": "DropDown",
			"DropDownId": 3,
			"Title": "Info & Policies"
		},
		{
			"DisplayOrder": 2,
			"Link": "",
			"MenuType": "DropDown",
			"DropDownId": 4,
			"Title": "Teaching"
		}
	]
}